%YAML 1.1
%TAG !u! tag:unity3d.com,2011:
--- !u!1045 &1
EditorBuildSettings:
  m_ObjectHideFlags: 0
  serializedVersion: 2
  m_Scenes:
  - enabled: 1
    path: Assets/Scenes/Menus/Scene_Title.unity
    guid: c976fe8ffd493c143a89491c2ad9290d
  - enabled: 1
    path: Assets/Scenes/Menus/Scene_Room.unity
    guid: 817e64979b85b0e4fa677674e18a6b6c
  - enabled: 1
    path: Assets/Scenes/Maps/Scene_Test.unity
    guid: 9ce9342b4ae591a42a3661a57fc65e7d
  m_configObjects: {}
